{
  "tbody": {
    "tr": [
      {
        "@style": "background:#EDD9AB;",
        "th": [
          "Piece",
          {
            "a": {
              "@href": "/wiki/Kanji",
              "@title": "Kanji",
              "#text": "Kanji"
            }
          },
          {
            "a": {
              "@href": "/wiki/Romaji",
              "@class": "mw-redirect",
              "@title": "Romaji",
              "#text": "Rōmaji"
            }
          },
          "Promotes to",
          {
            "a": {
              "@href": "/wiki/Kanji",
              "@title": "Kanji",
              "#text": "Kanji"
            }
          },
          {
            "a": {
              "@href": "/wiki/Romaji",
              "@class": "mw-redirect",
              "@title": "Romaji",
              "#text": "Rōmaji"
            }
          }
        ]
      },
      {
        "td": [
          "King",
          "玉将",
          {
            "i": "gyokushō"
          },
          "—",
          "",
          ""
        ]
      },
      {
        "td": [
          "Prince",
          "太子",
          {
            "i": "taishi"
          },
          "King",
          "玉将",
          {
            "i": "gyokushō"
          }
        ]
      },
      {
        "td": [
          "Great general",
          "大将",
          {
            "i": "taishō"
          },
          "—",
          "",
          ""
        ]
      },
      {
        "td": [
          "Gold general",
          "金将",
          {
            "i": "kinshō"
          },
          "Rook",
          "飛車",
          {
            "i": "hisha"
          }
        ]
      },
      {
        "td": [
          "Right general",
          "右将",
          {
            "i": "ushō"
          },
          "*Right army",
          "右軍",
          {
            "i": "ugun"
          }
        ]
      },
      {
        "td": [
          "Left general",
          "左将",
          {
            "i": "sashō"
          },
          "*Left army",
          "左軍",
          {
            "i": "sagun"
          }
        ]
      },
      {
        "td": [
          "Rear standard",
          "後旗",
          {
            "i": "kōki"
          },
          "Center standard",
          "中旗",
          {
            "i": "chūki"
          }
        ]
      },
      {
        "td": [
          "Queen",
          "奔王",
          {
            "i": "honnō"
          },
          "Great general",
          "大将",
          {
            "i": "taishō"
          }
        ]
      },
      {
        "td": [
          {
            "a": {
              "@href": "/wiki/Baku_(spirit)",
              "@class": "mw-redirect",
              "@title": "Baku (spirit)",
              "#text": "dream-eater"
            },
            "#text": "Free"
          },
          "奔獏",
          {
            "i": "honbaku"
          },
          "Queen",
          "奔王",
          {
            "i": "honnō"
          }
        ]
      },
      {
        "td": [
          "Wooden dove",
          "鳩槃",
          {
            "i": "kyūhan"
          },
          "—",
          "",
          ""
        ]
      },
      {
        "td": [
          "Ceramic dove",
          "鳩盤",
          {
            "i": "kyūban"
          },
          "—",
          "",
          ""
        ]
      },
      {
        "td": [
          {
            "a": {
              "@href": "/wiki/Dilong",
              "@title": "Dilong",
              "#text": "Earth dragon"
            }
          },
          "地龍",
          {
            "i": "chiryū"
          },
          "Rain dragon",
          "雨龍",
          {
            "i": "uryū"
          }
        ]
      },
      {
        "td": [
          {
            "a": {
              "@href": "/wiki/Oni_(Japanese_folklore)",
              "@class": "mw-redirect",
              "@title": "Oni (Japanese folklore)",
              "#text": "demon"
            },
            "#text": "Free"
          },
          "奔鬼",
          {
            "i": "honki"
          },
          "Queen",
          "奔王",
          {
            "i": "honnō"
          }
        ]
      },
      {
        "td": [
          "Running horse",
          "走馬",
          {
            "i": "sōma, sōba"
          },
          {
            "a": {
              "@href": "/wiki/Oni_(Japanese_folklore)",
              "@class": "mw-redirect",
              "@title": "Oni (Japanese folklore)",
              "#text": "demon"
            },
            "#text": "Free"
          },
          "奔鬼",
          {
            "i": "honki"
          }
        ]
      },
      {
        "td": [
          "Beast cadet",
          "獣曹",
          {
            "i": "jūsō"
          },
          "Beast officer",
          "獣吏",
          {
            "i": "jūri"
          }
        ]
      },
      {
        "td": [
          {
            "a": {
              "@href": "/wiki/Tengu",
              "@title": "Tengu",
              "#text": "Long-nosed goblin"
            }
          },
          "天狗",
          {
            "i": "tengu"
          },
          "—",
          "",
          ""
        ]
      },
      {
        "td": [
          "Right mountain eagle",
          "右山鷲",
          {
            "i": "usanshū"
          },
          "Soaring eagle",
          "飛鷲",
          {
            "i": "hijū"
          }
        ]
      },
      {
        "td": [
          "Left mountain eagle",
          "左山鷲",
          {
            "i": "sasanshū"
          },
          "Soaring eagle",
          "飛鷲",
          {
            "i": "hijū"
          }
        ]
      },
      {
        "td": [
          "Fire demon",
          "火鬼",
          {
            "i": "kaki"
          },
          "*Free fire",
          "奔火",
          {
            "i": "honka"
          }
        ]
      },
      {
        "td": [
          "Whale",
          "鯨鯢",
          {
            "i": "keigei"
          },
          "*Great whale",
          "大鯨",
          {
            "i": "daigei"
          }
        ]
      },
      {
        "td": [
          "Running rabbit",
          "走兎",
          {
            "i": "sōto"
          },
          "Treacherous fox",
          "隠狐",
          {
            "i": "inko, onko"
          }
        ]
      },
      {
        "td": [
          {
            "a": {
              "@href": "/wiki/Five_elements_(Japanese_philosophy)",
              "@class": "mw-redirect",
              "@title": "Five elements (Japanese philosophy)",
              "#text": "White tiger"
            }
          },
          "白虎",
          {
            "i": "byakko"
          },
          "*Divine tiger",
          "神虎",
          {
            "i": "shinko"
          }
        ]
      },
      {
        "td": [
          {
            "a": {
              "@href": "/wiki/Five_elements_(Japanese_philosophy)",
              "@class": "mw-redirect",
              "@title": "Five elements (Japanese philosophy)",
              "#text": "Turtle-snake"
            }
          },
          "玄武",
          {
            "i": "genbu"
          },
          "*Divine turtle",
          "神亀",
          {
            "i": "shinki"
          }
        ]
      },
      {
        "td": [
          "Lance",
          "香車",
          {
            "i": "kyōsha"
          },
          "White horse",
          "白駒",
          {
            "i": "hakku"
          }
        ]
      },
      {
        "td": [
          "Reverse chariot",
          "反車",
          {
            "i": "hensha"
          },
          "Whale",
          "鯨鯢",
          {
            "i": "keigei"
          }
        ]
      },
      {
        "td": [
          "Fragrant elephant",
          "香象",
          {
            "i": "kōzō"
          },
          "*Elephant king",
          "象王",
          {
            "i": "zōō"
          }
        ]
      },
      {
        "td": [
          {
            "a": {
              "@href": "/wiki/White_elephant",
              "@title": "White elephant",
              "#text": "White elephant"
            }
          },
          "白象",
          {
            "i": "hakuzō"
          },
          "*Elephant king",
          "象王",
          {
            "i": "zōō"
          }
        ]
      },
      {
        "td": [
          "Turtle dove",
          "山鳩",
          {
            "i": "sankyū"
          },
          "Great dove",
          "大鳩",
          {
            "i": "daikyū"
          }
        ]
      },
      {
        "td": [
          "Flying swallow",
          "飛燕",
          {
            "i": "hien"
          },
          "Rook",
          "飛車",
          {
            "i": "hisha"
          }
        ]
      },
      {
        "td": [
          "Captive officer",
          "禽吏",
          {
            "i": "kinri"
          },
          "*Captive bird",
          "禽鳥",
          {
            "i": "kinchō"
          }
        ]
      },
      {
        "td": [
          "Rain dragon",
          "雨龍",
          {
            "i": "uryū"
          },
          "Great dragon",
          "大龍",
          {
            "i": "dairyū"
          }
        ]
      },
      {
        "td": [
          "Forest demon",
          "森鬼",
          {
            "i": "shinki"
          },
          "*Thunder runner",
          "雷走",
          {
            "i": "raisō"
          }
        ]
      },
      {
        "td": [
          "Mountain stag",
          "山鹿",
          {
            "i": "sanroku"
          },
          "Great stag",
          "大鹿",
          {
            "i": "dairoku"
          }
        ]
      },
      {
        "td": [
          "Running pup",
          "走狗",
          {
            "i": "sōku"
          },
          "*Free leopard",
          "奔豹",
          {
            "i": "honpyō"
          }
        ]
      },
      {
        "td": [
          "Running serpent",
          "走蛇",
          {
            "i": "sōja"
          },
          "*Free serpent",
          "奔蛇",
          {
            "i": "honja"
          }
        ]
      },
      {
        "td": [
          "Side serpent",
          "横蛇",
          {
            "i": "ōja"
          },
          "*Great shark",
          "大鱗",
          {
            "i": "dairin"
          }
        ]
      },
      {
        "td": [
          "Great dove",
          "大鳩",
          {
            "i": "daikyū"
          },
          "Wooden dove",
          "鳩槃",
          {
            "i": "kyūhan"
          }
        ]
      },
      {
        "td": [
          "Running tiger",
          "走虎",
          {
            "i": "sōko"
          },
          "*Free tiger",
          "奔虎",
          {
            "i": "honko"
          }
        ]
      },
      {
        "td": [
          "Running bear",
          "走熊",
          {
            "i": "sōyū"
          },
          "*Free bear",
          "奔熊",
          {
            "i": "hon'yū"
          }
        ]
      },
      {
        "td": [
          {
            "a": {
              "@href": "/wiki/Yaksha",
              "@title": "Yaksha",
              "#text": "Yaksha"
            }
          },
          "夜叉",
          {
            "i": "yasha"
          },
          "*Heavenly tetrarch",
          "四天",
          {
            "i": "shiten"
          }
        ]
      },
      {
        "td": [
          {
            "a": {
              "@href": "/wiki/Rakshasa",
              "@title": "Rakshasa",
              "#text": "Buddhist devil"
            }
          },
          "羅刹",
          {
            "i": "rasetsu"
          },
          "*Heavenly tetrarch",
          "四天",
          {
            "i": "shiten"
          }
        ]
      },
      {
        "td": [
          "Guardian of the gods",
          "金剛",
          {
            "i": "kongō"
          },
          "*Heavenly tetrarch",
          "四天",
          {
            "i": "shiten"
          }
        ]
      },
      {
        "td": [
          {
            "a": {
              "@href": "/wiki/Sumo",
              "@title": "Sumo",
              "#text": "Wrestler"
            }
          },
          "力士",
          {
            "i": "rikishi"
          },
          "*Heavenly tetrarch",
          "四天",
          {
            "i": "shiten"
          }
        ]
      },
      {
        "td": [
          "Silver general",
          "銀将",
          {
            "i": "ginshō"
          },
          "Vertical mover",
          "竪行",
          {
            "i": "shugyō"
          }
        ]
      },
      {
        "td": [
          "Drunken elephant",
          "酔象",
          {
            "i": "suizō"
          },
          "Prince",
          "太子",
          {
            "i": "taishi"
          }
        ]
      },
      {
        "td": [
          "Neighboring king",
          "近王",
          {
            "i": "kinnō"
          },
          "Front standard",
          "前旗",
          {
            "i": "zenki"
          }
        ]
      },
      {
        "td": [
          "Gold chariot",
          "金車",
          {
            "i": "kinsha"
          },
          "*Playful cockatoo",
          "遊䳇",
          {
            "i": "yūmo"
          }
        ]
      },
      {
        "td": [
          "Side dragon",
          "横龍",
          {
            "i": "ōryū"
          },
          "*Running dragon",
          "走龍",
          {
            "i": "sōryū"
          }
        ]
      },
      {
        "td": [
          "Running stag",
          "走鹿",
          {
            "i": "sōroku"
          },
          "*Free stag",
          "奔鹿",
          {
            "i": "honroku"
          }
        ]
      },
      {
        "td": [
          "Running wolf",
          "走狼",
          {
            "i": "sōrō"
          },
          "*Free wolf",
          "奔狼",
          {
            "i": "honrō"
          }
        ]
      },
      {
        "td": [
          "Bishop general",
          "角将",
          {
            "i": "kakushō"
          },
          "*Rain demon",
          "霖鬼",
          {
            "i": "rinki"
          }
        ]
      },
      {
        "td": [
          "Rook general",
          "飛将",
          {
            "i": "hishō"
          },
          "*Flying crocodile",
          "飛鰐",
          {
            "i": "higaku"
          }
        ]
      },
      {
        "td": [
          "Right tiger",
          "右虎",
          {
            "i": "uko"
          },
          {
            "a": {
              "@href": "/wiki/Five_elements_(Japanese_philosophy)",
              "@class": "mw-redirect",
              "@title": "Five elements (Japanese philosophy)",
              "#text": "White tiger"
            }
          },
          "白虎",
          {
            "i": "byakko"
          }
        ]
      },
      {
        "td": [
          "Left tiger",
          "左虎",
          {
            "i": "sako"
          },
          {
            "a": {
              "@href": "/wiki/Five_elements_(Japanese_philosophy)",
              "@class": "mw-redirect",
              "@title": "Five elements (Japanese philosophy)",
              "#text": "Turtle-snake"
            }
          },
          "玄武",
          {
            "i": "genbu"
          }
        ]
      },
      {
        "td": [
          "Right dragon",
          "右龍",
          {
            "i": "uryū"
          },
          {
            "a": {
              "@href": "/wiki/Five_elements_(Japanese_philosophy)",
              "@class": "mw-redirect",
              "@title": "Five elements (Japanese philosophy)",
              "#text": "Blue dragon"
            }
          },
          "青龍",
          {
            "i": "seiryū"
          }
        ]
      },
      {
        "td": [
          "Left dragon",
          "左龍",
          {
            "i": "saryū"
          },
          {
            "a": {
              "@href": "/wiki/Five_elements_(Japanese_philosophy)",
              "@class": "mw-redirect",
              "@title": "Five elements (Japanese philosophy)",
              "#text": "Vermillion sparrow"
            }
          },
          "朱雀",
          {
            "i": "suzaku"
          }
        ]
      },
      {
        "td": [
          "Beast officer",
          "獣吏",
          {
            "i": "jūri"
          },
          "*Beast bird",
          "獣鳥",
          {
            "i": "jūchō"
          }
        ]
      },
      {
        "td": [
          "Wind dragon",
          "風龍",
          {
            "i": "fūryū"
          },
          "*Free dragon",
          "奔龍",
          {
            "i": "honryū"
          }
        ]
      },
      {
        "td": [
          "Free pup",
          "奔狗",
          {
            "i": "honku"
          },
          "*Free dog",
          "奔犬",
          {
            "i": "honken"
          }
        ]
      },
      {
        "td": [
          "Rushing bird",
          "行鳥",
          {
            "i": "gyōchō"
          },
          {
            "a": {
              "@href": "/wiki/Oni_(Japanese_folklore)",
              "@class": "mw-redirect",
              "@title": "Oni (Japanese folklore)",
              "#text": "demon"
            },
            "#text": "Free"
          },
          "奔鬼",
          {
            "i": "honki"
          }
        ]
      },
      {
        "td": [
          {
            "a": {
              "@href": "/wiki/Kite_(bird)",
              "@title": "Kite (bird)",
              "#text": "kite"
            },
            "#text": "Old"
          },
          "古鵄",
          {
            "i": "kotetsu"
          },
          {
            "a": {
              "@href": "/wiki/Tengu",
              "@title": "Tengu",
              "#text": "Long-nosed goblin"
            }
          },
          "天狗",
          {
            "i": "tengu"
          }
        ]
      },
      {
        "td": [
          "Peacock",
          "孔雀",
          {
            "i": "kujaku"
          },
          {
            "a": {
              "@href": "/wiki/Tengu",
              "@title": "Tengu",
              "#text": "Long-nosed goblin"
            }
          },
          "天狗",
          {
            "i": "tengu"
          }
        ]
      },
      {
        "td": [
          "Water dragon",
          "水龍",
          {
            "i": "suiryū"
          },
          "Phoenix-master",
          "鳳師",
          {
            "i": "hōshi"
          }
        ]
      },
      {
        "td": [
          "Fire dragon",
          "火龍",
          {
            "i": "karyū"
          },
          "Kirin-master",
          "麟師",
          {
            "i": "rinshi"
          }
        ]
      },
      {
        "td": [
          "Copper general",
          "銅将",
          {
            "i": "dōshō"
          },
          "Side mover",
          "横行",
          {
            "i": "ōgyō"
          }
        ]
      },
      {
        "td": [
          "Phoenix-master",
          "鳳師",
          {
            "i": "hōshi"
          },
          "—",
          "",
          ""
        ]
      },
      {
        "td": [
          "Kirin-master",
          "麟師",
          {
            "i": "rinshi"
          },
          "—",
          "",
          ""
        ]
      },
      {
        "td": [
          "Silver chariot",
          "銀車",
          {
            "i": "ginsha"
          },
          "*Goose wing",
          "鴻翼",
          {
            "i": "kōyoko"
          }
        ]
      },
      {
        "td": [
          "Vertical bear",
          "竪熊",
          {
            "i": "shuyū"
          },
          "*Free bear",
          "奔熊",
          {
            "i": "hon'yū"
          }
        ]
      },
      {
        "td": [
          "Knight",
          "桂馬",
          {
            "i": "keima"
          },
          "Side soldier",
          "横兵",
          {
            "i": "ōhei"
          }
        ]
      },
      {
        "td": [
          "Pig general",
          "豚将",
          {
            "i": "tonshō"
          },
          "*Free pig",
          "奔豚",
          {
            "i": "honton"
          }
        ]
      },
      {
        "td": [
          "Chicken general",
          "鶏将",
          {
            "i": "keishō"
          },
          "*Free chicken",
          "奔鶏",
          {
            "i": "honkei"
          }
        ]
      },
      {
        "td": [
          "Pup general",
          "狗将",
          {
            "i": "kushō"
          },
          "Free pup",
          "奔狗",
          {
            "i": "honku"
          }
        ]
      },
      {
        "td": [
          "Horse general",
          "馬将",
          {
            "i": "bashō"
          },
          "*Free horse",
          "奔馬",
          {
            "i": "honba"
          }
        ]
      },
      {
        "td": [
          "Ox general",
          "牛将",
          {
            "i": "gyūshō"
          },
          "*Free ox",
          "奔牛",
          {
            "i": "hongyū"
          }
        ]
      },
      {
        "td": [
          "Center standard",
          "中旗",
          {
            "i": "chūki"
          },
          "Front standard",
          "前旗",
          {
            "i": "zenki"
          }
        ]
      },
      {
        "td": [
          "Side boar",
          "横猪",
          {
            "i": "ōcho"
          },
          "*Free boar",
          "奔猪",
          {
            "i": "honcho"
          }
        ]
      },
      {
        "td": [
          "Silver rabbit",
          "銀兎",
          {
            "i": "ginto"
          },
          "Whale",
          "鯨鯢",
          {
            "i": "keigei"
          }
        ]
      },
      {
        "td": [
          "Golden deer",
          "金鹿",
          {
            "i": "konroku"
          },
          "White horse",
          "白駒",
          {
            "i": "hakku"
          }
        ]
      },
      {
        "td": [
          "Lion",
          "獅子",
          {
            "i": "shishi"
          },
          "*Furious fiend",
          "奮迅",
          {
            "i": "funjin"
          }
        ]
      },
      {
        "td": [
          "Captive cadet",
          "禽曹",
          {
            "i": "kinsō"
          },
          "Captive officer",
          "禽吏",
          {
            "i": "kinri"
          }
        ]
      },
      {
        "td": [
          "Great stag",
          "大鹿",
          {
            "i": "dairoku"
          },
          "*Free stag",
          "奔鹿",
          {
            "i": "honroku"
          }
        ]
      },
      {
        "td": [
          "Violent dragon",
          "猛龍",
          {
            "i": "mōryū"
          },
          "Great dragon",
          "大龍",
          {
            "i": "dairyū"
          }
        ]
      },
      {
        "td": [
          "Woodland demon",
          "林鬼",
          {
            "i": "rinki"
          },
          {
            "sup": {
              "@id": "cite_ref-3",
              "@class": "reference",
              "a": {
                "@href": "#cite_note-3",
                "#text": "[2]"
              }
            },
            "#text": "*Right phoenix"
          },
          "右鵰",
          {
            "i": "ushū"
          }
        ]
      },
      {
        "td": [
          "Vice general",
          "副将",
          {
            "i": "fukushō"
          },
          "Great general",
          "大将",
          {
            "i": "taishō"
          }
        ]
      },
      {
        "td": [
          "Stone chariot",
          "石車",
          {
            "i": "sekisha"
          },
          "*Walking heron",
          "歩䳲",
          {
            "i": "fushin"
          }
        ]
      },
      {
        "td": [
          "Cloud eagle",
          "雲鷲",
          {
            "i": "unjū"
          },
          "*Strong eagle",
          "勁鷲",
          {
            "i": "keijū"
          }
        ]
      },
      {
        "td": [
          "Bishop",
          "角行",
          {
            "i": "kakugyō"
          },
          "Dragon horse",
          "龍馬",
          {
            "i": "ryūme"
          }
        ]
      },
      {
        "td": [
          "Rook",
          "飛車",
          {
            "i": "hisha"
          },
          "Dragon king",
          "龍王",
          {
            "i": "ryūō"
          }
        ]
      },
      {
        "td": [
          "Side wolf",
          "横狼",
          {
            "i": "ōrō"
          },
          "*Free wolf",
          "奔狼",
          {
            "i": "honrō"
          }
        ]
      },
      {
        "td": [
          "Flying cat",
          "飛猫",
          {
            "i": "hibyō"
          },
          "Rook",
          "飛車",
          {
            "i": "hisha"
          }
        ]
      },
      {
        "td": [
          "Mountain falcon",
          "山鷹",
          {
            "i": "san'ō"
          },
          "Horned falcon",
          "角鷹",
          {
            "i": "kakuō"
          }
        ]
      },
      {
        "td": [
          "Vertical tiger",
          "竪虎",
          {
            "i": "shuko"
          },
          "*Free tiger",
          "奔虎",
          {
            "i": "honko"
          }
        ]
      },
      {
        "td": [
          "Soldier",
          "兵士",
          {
            "i": "heishi"
          },
          "*Cavalier",
          "騎士",
          {
            "i": "kishi"
          }
        ]
      },
      {
        "td": [
          "Little standard",
          "小旗",
          {
            "i": "shōki"
          },
          "Rear standard",
          "後旗",
          {
            "i": "kōki"
          }
        ]
      },
      {
        "td": [
          "Cloud dragon",
          "雲龍",
          {
            "i": "unryū"
          },
          "Great dragon",
          "大龍",
          {
            "i": "dairyū"
          }
        ]
      },
      {
        "td": [
          "Copper chariot",
          "銅車",
          {
            "i": "dōsha"
          },
          "*Copper elephant",
          "銅象",
          {
            "i": "dōzō"
          }
        ]
      },
      {
        "td": [
          "Running chariot",
          "走車",
          {
            "i": "sōsha"
          },
          "*Burning chariot",
          "炮車",
          {
            "i": "hōsha"
          }
        ]
      },
      {
        "td": [
          "Ram's-head soldier",
          "羊兵",
          {
            "i": "yōhei"
          },
          "*Tiger soldier",
          "虎兵",
          {
            "i": "kohei"
          }
        ]
      },
      {
        "td": [
          "Violent ox",
          "猛牛",
          {
            "i": "mōgyū"
          },
          "Flying ox",
          "飛牛",
          {
            "i": "higyū"
          }
        ]
      },
      {
        "td": [
          "Great dragon",
          "大龍",
          {
            "i": "dairyū"
          },
          "*Ancient dragon",
          "元龍",
          {
            "i": "genryū, ganryū"
          }
        ]
      },
      {
        "td": [
          "Golden bird",
          "金翅",
          {
            "i": "kinshi"
          },
          "*Free bird",
          "奔翅",
          {
            "i": "honshi"
          }
        ]
      },
      {
        "td": [
          {
            "a": {
              "@href": "/wiki/Avidya_(Buddhism)",
              "@class": "mw-redirect",
              "@title": "Avidya (Buddhism)",
              "#text": "Dark spirit"
            }
          },
          "無明",
          {
            "i": "mumyō"
          },
          "*Buddhist spirit",
          "法性",
          {
            "i": "hōsei"
          }
        ]
      },
      {
        "td": [
          {
            "a": {
              "@href": "/wiki/Deva_(Buddhism)",
              "@title": "Deva (Buddhism)",
              "#text": "Deva"
            }
          },
          "提婆",
          {
            "i": "daiba"
          },
          "*Teaching king",
          "教王",
          {
            "i": "kyōō"
          }
        ]
      },
      {
        "td": [
          "Wood chariot",
          "木車",
          {
            "i": "mokusha"
          },
          "*Wind snapping turtle",
          "風鼈",
          {
            "i": "fūbetsu"
          }
        ]
      },
      {
        "td": [
          "White horse",
          "白駒",
          {
            "i": "hakku"
          },
          "*Great horse",
          "大駒",
          {
            "i": "daiku"
          }
        ]
      },
      {
        "td": [
          "Howling dog (left and right)",
          "𠵇犬",
          {
            "i": "kiken"
          },
          "*Left dog, *Right dog",
          "左犬, 右犬",
          {
            "i": [
              "saken",
              "uken"
            ],
            "#text": ","
          }
        ]
      },
      {
        "td": [
          "Side mover",
          "横行",
          {
            "i": "ōgyō"
          },
          "*Free boar",
          "奔猪",
          {
            "i": "honcho"
          }
        ]
      },
      {
        "td": [
          "Prancing stag",
          "踊鹿",
          {
            "i": "yōroku"
          },
          "Square-mover",
          "方行",
          {
            "i": "hōgyō"
          }
        ]
      },
      {
        "td": [
          "Water buffalo",
          "水牛",
          {
            "i": "suigyū"
          },
          {
            "a": {
              "@href": "/wiki/Baku_(spirit)",
              "@class": "mw-redirect",
              "@title": "Baku (spirit)",
              "#text": "dream-eater"
            },
            "#text": "*Great"
          },
          "大獏",
          {
            "i": "daibaku"
          }
        ]
      },
      {
        "td": [
          "Ferocious leopard",
          "猛豹",
          {
            "i": "mōhyō"
          },
          "Bishop",
          "角行",
          {
            "i": "kakugyō"
          }
        ]
      },
      {
        "td": [
          "Fierce eagle",
          "猛鷲",
          {
            "i": "mōjū"
          },
          "Soaring eagle",
          "飛鷲",
          {
            "i": "hijū"
          }
        ]
      },
      {
        "td": [
          "Flying dragon",
          "飛龍",
          {
            "i": "hiryū"
          },
          "Dragon king",
          "龍王",
          {
            "i": "ryūō"
          }
        ]
      },
      {
        "td": [
          "Poisonous snake",
          "毒蛇",
          {
            "i": "dokuja"
          },
          "Hook-mover",
          "鉤行",
          {
            "i": "kōgyō"
          }
        ]
      },
      {
        "td": [
          "Flying goose",
          "鳫飛",
          {
            "i": "ganhi"
          },
          "Swallow's wings",
          "燕羽",
          {
            "i": "en'u"
          }
        ]
      },
      {
        "td": [
          "Strutting crow",
          "烏行",
          {
            "i": "ukō"
          },
          "*Flying falcon",
          "飛鷹",
          {
            "i": "hiyō"
          }
        ]
      },
      {
        "td": [
          "Blind dog",
          "盲犬",
          {
            "i": "mōken"
          },
          "Violent stag",
          "猛鹿",
          {
            "i": "mōroku"
          }
        ]
      },
      {
        "td": [
          "Water general",
          "水将",
          {
            "i": "suishō"
          },
          "Vice general",
          "副将",
          {
            "i": "fukushō"
          }
        ]
      },
      {
        "td": [
          "Fire general",
          "火将",
          {
            "i": "kashō"
          },
          "Great general",
          "大将",
          {
            "i": "taishō"
          }
        ]
      },
      {
        "td": [
          {
            "a": {
              "@href": "/wiki/Fenghuang",
              "@title": "Fenghuang",
              "#text": "Phoenix"
            }
          },
          "鳳凰",
          {
            "i": "hōō"
          },
          "Golden bird",
          "金翅",
          {
            "i": "kinshi"
          }
        ]
      },
      {
        "td": [
          {
            "a": {
              "@href": "/wiki/Qilin",
              "@title": "Qilin",
              "#text": "Kirin"
            }
          },
          "麒麟",
          {
            "i": "kirin"
          },
          "Golden bird",
          "金翅",
          {
            "i": "kinshi"
          }
        ]
      },
      {
        "td": [
          "Hook-mover",
          "鉤行",
          {
            "i": "kōgyō"
          },
          "—",
          "",
          ""
        ]
      },
      {
        "td": [
          "Little turtle",
          "小亀",
          {
            "i": "shōki"
          },
          "*Treasure turtle",
          "宝亀",
          {
            "i": "hōki"
          }
        ]
      },
      {
        "td": [
          "Great turtle",
          "大亀",
          {
            "i": "daiki"
          },
          "*Spirit turtle",
          "霊亀",
          {
            "i": "reiki"
          }
        ]
      },
      {
        "td": [
          "Capricorn",
          "摩羯",
          {
            "i": "makatsu"
          },
          "Hook-mover",
          "鉤行",
          {
            "i": "kōgyō"
          }
        ]
      },
      {
        "td": [
          "Tile chariot",
          "瓦車",
          {
            "i": "gasha"
          },
          "*Running tile",
          "走瓦",
          {
            "i": "sōga"
          }
        ]
      },
      {
        "td": [
          "Vertical wolf",
          "竪狼",
          {
            "i": "shurō"
          },
          "Running wolf",
          "走狼",
          {
            "i": "sōrō"
          }
        ]
      },
      {
        "td": [
          "Side ox",
          "横牛",
          {
            "i": "ōgyū"
          },
          "Flying ox",
          "飛牛",
          {
            "i": "higyū"
          }
        ]
      },
      {
        "td": [
          "Donkey",
          "驢馬",
          {
            "i": "roba"
          },
          "Ceramic dove",
          "鳩盤",
          {
            "i": "kyūban"
          }
        ]
      },
      {
        "td": [
          "Flying horse",
          "馬麟",
          {
            "i": "barin"
          },
          "Queen",
          "奔王",
          {
            "i": "honnō"
          }
        ]
      },
      {
        "td": [
          "Violent bear",
          "猛熊",
          {
            "i": "mōyū"
          },
          "*Great bear",
          "大熊",
          {
            "i": "daiyū"
          }
        ]
      },
      {
        "td": [
          "Angry boar",
          "嗔猪",
          {
            "i": "shincho"
          },
          "*Free boar",
          "奔猪",
          {
            "i": "honcho"
          }
        ]
      },
      {
        "td": [
          "Evil wolf",
          "悪狼",
          {
            "i": "akurō"
          },
          "*Venomous wolf",
          "毒狼",
          {
            "i": "dokurō"
          }
        ]
      },
      {
        "td": [
          "Liberated horse",
          "風馬",
          {
            "i": "fūma"
          },
          "*Heavenly horse",
          "天馬",
          {
            "i": "temma"
          }
        ]
      },
      {
        "td": [
          "Flying cock",
          "鶏飛",
          {
            "i": "keihi"
          },
          "*Raiding falcon",
          "延鷹",
          {
            "i": "en'yō"
          }
        ]
      },
      {
        "td": [
          "Old monkey",
          "古猿",
          {
            "i": "koen"
          },
          {
            "a": {
              "@href": "/wiki/Yama-uba",
              "@title": "Yama-uba",
              "#text": "Mountain witch"
            },
            "#text": "*"
          },
          "山母",
          {
            "i": "sanbo"
          }
        ]
      },
      {
        "td": [
          "Chinese cock",
          "淮鶏",
          {
            "i": "waikei"
          },
          "*Wizard stork",
          {
            "span": {
              "@typeof": "mw:File",
              "a": {
                "@href": "/wiki/File:Shougi_kaku.png",
                "@class": "mw-file-description",
                "@title": "⿱而鷦",
                "img": {
                  "@alt": "⿱而鷦",
                  "@src": "//upload.wikimedia.org/wikipedia/commons/thumb/7/7d/Shougi_kaku.png/18px-Shougi_kaku.png",
                  "@decoding": "async",
                  "@width": "18",
                  "@height": "18",
                  "@class": "mw-file-element",
                  "@srcset": "//upload.wikimedia.org/wikipedia/commons/thumb/7/7d/Shougi_kaku.png/27px-Shougi_kaku.png 1.5x, //upload.wikimedia.org/wikipedia/commons/thumb/7/7d/Shougi_kaku.png/36px-Shougi_kaku.png 2x",
                  "@data-file-width": "528",
                  "@data-file-height": "528"
                }
              }
            },
            "#text": "仙"
          },
          {
            "i": "senkaku"
          }
        ]
      },
      {
        "td": [
          {
            "a": {
              "@href": "/wiki/Xiongnu",
              "@title": "Xiongnu",
              "#text": "Northern barbarian"
            }
          },
          "北狄",
          {
            "i": "hokuteki"
          },
          "Wooden dove",
          "鳩槃",
          {
            "i": "kyūhan"
          }
        ]
      },
      {
        "td": [
          {
            "a": {
              "@href": "/wiki/Nanman",
              "@title": "Nanman",
              "#text": "Southern barbarian"
            }
          },
          "南蛮",
          {
            "i": "nanban"
          },
          "Golden bird",
          "金翅",
          {
            "i": "kinshi"
          }
        ]
      },
      {
        "td": [
          {
            "a": {
              "@href": "/wiki/Xirong",
              "@title": "Xirong",
              "#text": "Western barbarian"
            }
          },
          "西戎",
          {
            "i": "seijū"
          },
          {
            "a": {
              "@href": "/wiki/Komainu",
              "@title": "Komainu",
              "#text": "Lion dog"
            }
          },
          "狛犬",
          {
            "i": "komainu"
          }
        ]
      },
      {
        "td": [
          {
            "a": {
              "@href": "/wiki/Dongyi",
              "@title": "Dongyi",
              "#text": "Eastern barbarian"
            }
          },
          "東夷",
          {
            "i": "tōi"
          },
          "Lion",
          "獅子",
          {
            "i": "shishi"
          }
        ]
      },
      {
        "td": [
          "Violent stag",
          "猛鹿",
          {
            "i": "mōroku"
          },
          "*Rushing boar",
          "行猪",
          {
            "i": "gyōcho"
          }
        ]
      },
      {
        "td": [
          "Violent wolf",
          "猛狼",
          {
            "i": "mōrō"
          },
          "*Bear's eyes",
          "熊眼",
          {
            "i": "yūgan"
          }
        ]
      },
      {
        "td": [
          "Treacherous fox",
          "隠狐",
          {
            "i": "inko, onko"
          },
          "*Mountain crane",
          "山鶻",
          {
            "i": "sankotsu"
          }
        ]
      },
      {
        "td": [
          "Center master",
          "中師",
          {
            "i": "chūshi"
          },
          "—",
          "",
          ""
        ]
      },
      {
        "td": [
          "Roc-master",
          "鵬師",
          {
            "i": "hōshi"
          },
          "—",
          "",
          ""
        ]
      },
      {
        "td": [
          "Earth chariot",
          "土車",
          {
            "i": "dosha"
          },
          "*Young bird",
          "𦬨鳥",
          {
            "i": "shakuchō"
          }
        ]
      },
      {
        "td": [
          {
            "a": {
              "@href": "/wiki/Five_elements_(Japanese_philosophy)",
              "@class": "mw-redirect",
              "@title": "Five elements (Japanese philosophy)",
              "#text": "Vermillion sparrow"
            }
          },
          "朱雀",
          {
            "i": "suzaku"
          },
          "*Divine sparrow",
          "神雀",
          {
            "i": "shinjaku"
          }
        ]
      },
      {
        "td": [
          {
            "a": {
              "@href": "/wiki/Five_elements_(Japanese_philosophy)",
              "@class": "mw-redirect",
              "@title": "Five elements (Japanese philosophy)",
              "#text": "Blue dragon"
            }
          },
          "青龍",
          {
            "i": "seiryū"
          },
          "*Divine dragon",
          "神龍",
          {
            "i": "shinryū"
          }
        ]
      },
      {
        "td": [
          "Enchanted badger",
          "変狸",
          {
            "i": "henri"
          },
          "Ceramic dove",
          "鳩盤",
          {
            "i": "kyūban"
          }
        ]
      },
      {
        "td": [
          "Horseman",
          "騎兵",
          {
            "i": "kihei"
          },
          "*Cavalier",
          "騎士",
          {
            "i": "kishi"
          }
        ]
      },
      {
        "td": [
          "Swooping owl",
          "鴟行",
          {
            "i": "shigyō"
          },
          "Cloud eagle",
          "雲鷲",
          {
            "i": "unjū"
          }
        ]
      },
      {
        "td": [
          "Climbing monkey",
          "登猿",
          {
            "i": "tōen"
          },
          "Violent stag",
          "猛鹿",
          {
            "i": "mōroku"
          }
        ]
      },
      {
        "td": [
          "Cat sword",
          "猫刄",
          {
            "i": "myōjin"
          },
          "Dragon horse",
          "龍馬",
          {
            "i": "ryūme"
          }
        ]
      },
      {
        "td": [
          "Swallow's wings",
          "燕羽",
          {
            "i": "en'u"
          },
          "*Gliding swallow",
          "燕行",
          {
            "i": "engyō"
          }
        ]
      },
      {
        "td": [
          "Blind monkey",
          "盲猿",
          {
            "i": "mōen"
          },
          "*Flying stag",
          "飛鹿",
          {
            "i": "hiroku"
          }
        ]
      },
      {
        "td": [
          "Blind tiger",
          "盲虎",
          {
            "i": "mōko"
          },
          "*Flying stag",
          "飛鹿",
          {
            "i": "hiroku"
          }
        ]
      },
      {
        "td": [
          "Oxcart",
          "牛車",
          {
            "i": "gissha"
          },
          "*Plodding ox",
          "歬牛",
          {
            "i": "sengyū"
          }
        ]
      },
      {
        "td": [
          "Side-flyer",
          "横飛",
          {
            "i": "ōhi"
          },
          "Side dragon",
          "横龍",
          {
            "i": "ōryū"
          }
        ]
      },
      {
        "td": [
          "Blind bear",
          "盲熊",
          {
            "i": "mōyū"
          },
          "*Flying stag",
          "飛鹿",
          {
            "i": "hiroku"
          }
        ]
      },
      {
        "td": [
          "Old rat",
          "老鼠",
          {
            "i": "rōso"
          },
          "*Bird of paradise",
          {
            "span": [
              {
                "@typeof": "mw:File",
                "a": {
                  "@href": "/wiki/File:Kanji_-_%E5%8F%A4%2B%E5%AF%BA.svg",
                  "@class": "mw-file-description",
                  "@title": "⿰古寺",
                  "img": {
                    "@alt": "⿰古寺",
                    "@src": "//upload.wikimedia.org/wikipedia/commons/thumb/c/c5/Kanji_-_%E5%8F%A4%2B%E5%AF%BA.svg/18px-Kanji_-_%E5%8F%A4%2B%E5%AF%BA.svg.png",
                    "@decoding": "async",
                    "@width": "18",
                    "@height": "18",
                    "@class": "mw-file-element",
                    "@srcset": "//upload.wikimedia.org/wikipedia/commons/thumb/c/c5/Kanji_-_%E5%8F%A4%2B%E5%AF%BA.svg/27px-Kanji_-_%E5%8F%A4%2B%E5%AF%BA.svg.png 1.5x, //upload.wikimedia.org/wikipedia/commons/thumb/c/c5/Kanji_-_%E5%8F%A4%2B%E5%AF%BA.svg/36px-Kanji_-_%E5%8F%A4%2B%E5%AF%BA.svg.png 2x",
                    "@data-file-width": "360",
                    "@data-file-height": "360"
                  }
                }
              },
              {
                "@typeof": "mw:File",
                "a": {
                  "@href": "/wiki/File:Kanji_-_%E6%99%82%2B%E9%B3%A5.svg",
                  "@class": "mw-file-description",
                  "@title": "⿱時鳥",
                  "img": {
                    "@alt": "⿱時鳥",
                    "@src": "//upload.wikimedia.org/wikipedia/commons/thumb/a/a4/Kanji_-_%E6%99%82%2B%E9%B3%A5.svg/18px-Kanji_-_%E6%99%82%2B%E9%B3%A5.svg.png",
                    "@decoding": "async",
                    "@width": "18",
                    "@height": "18",
                    "@class": "mw-file-element",
                    "@srcset": "//upload.wikimedia.org/wikipedia/commons/thumb/a/a4/Kanji_-_%E6%99%82%2B%E9%B3%A5.svg/27px-Kanji_-_%E6%99%82%2B%E9%B3%A5.svg.png 1.5x, //upload.wikimedia.org/wikipedia/commons/thumb/a/a4/Kanji_-_%E6%99%82%2B%E9%B3%A5.svg/36px-Kanji_-_%E6%99%82%2B%E9%B3%A5.svg.png 2x",
                    "@data-file-width": "360",
                    "@data-file-height": "360"
                  }
                }
              },
              {
                "@typeof": "mw:File",
                "a": {
                  "@href": "/wiki/File:820c_58fa.png",
                  "@class": "mw-file-description",
                  "@title": "⿰舌寺",
                  "img": {
                    "@alt": "⿰舌寺",
                    "@src": "//upload.wikimedia.org/wikipedia/commons/thumb/c/c6/820c_58fa.png/18px-820c_58fa.png",
                    "@decoding": "async",
                    "@width": "18",
                    "@height": "18",
                    "@class": "mw-file-element",
                    "@srcset": "//upload.wikimedia.org/wikipedia/commons/thumb/c/c6/820c_58fa.png/27px-820c_58fa.png 1.5x, //upload.wikimedia.org/wikipedia/commons/thumb/c/c6/820c_58fa.png/36px-820c_58fa.png 2x",
                    "@data-file-width": "360",
                    "@data-file-height": "360"
                  }
                }
              },
              {
                "@typeof": "mw:File",
                "a": {
                  "@href": "/wiki/File:Kanji_-_%E6%99%82%2B%E9%B3%A5.svg",
                  "@class": "mw-file-description",
                  "@title": "⿱時鳥",
                  "img": {
                    "@alt": "⿱時鳥",
                    "@src": "//upload.wikimedia.org/wikipedia/commons/thumb/a/a4/Kanji_-_%E6%99%82%2B%E9%B3%A5.svg/18px-Kanji_-_%E6%99%82%2B%E9%B3%A5.svg.png",
                    "@decoding": "async",
                    "@width": "18",
                    "@height": "18",
                    "@class": "mw-file-element",
                    "@srcset": "//upload.wikimedia.org/wikipedia/commons/thumb/a/a4/Kanji_-_%E6%99%82%2B%E9%B3%A5.svg/27px-Kanji_-_%E6%99%82%2B%E9%B3%A5.svg.png 1.5x, //upload.wikimedia.org/wikipedia/commons/thumb/a/a4/Kanji_-_%E6%99%82%2B%E9%B3%A5.svg/36px-Kanji_-_%E6%99%82%2B%E9%B3%A5.svg.png 2x",
                    "@data-file-width": "360",
                    "@data-file-height": "360"
                  }
                }
              }
            ],
            "br": "",
            "#text": "or"
          },
          {
            "i": "jichō"
          }
        ]
      },
      {
        "td": [
          "Square-mover",
          "方行",
          {
            "i": "hōgyō"
          },
          "*Strong chariot",
          "強車",
          {
            "i": "kyōsha"
          }
        ]
      },
      {
        "td": [
          "Coiled serpent",
          "蟠蛇",
          {
            "i": "banja"
          },
          "*Coiled dragon",
          "蟠龍",
          {
            "i": "banryū"
          }
        ]
      },
      {
        "td": [
          "Reclining dragon",
          "臥龍",
          {
            "i": "garyū"
          },
          "Great dragon",
          "大龍",
          {
            "i": "dairyū"
          }
        ]
      },
      {
        "td": [
          "Free eagle",
          "奔鷲",
          {
            "i": "honjū"
          },
          "—",
          "",
          ""
        ]
      },
      {
        "td": [
          "Lion hawk",
          "獅鷹",
          {
            "i": "shiō"
          },
          "—",
          "",
          ""
        ]
      },
      {
        "td": [
          "Chariot soldier",
          "車兵",
          {
            "i": "shahei"
          },
          "*Heavenly tetrarch king",
          "四天王",
          {
            "i": "shitennō"
          }
        ]
      },
      {
        "td": [
          "Side soldier",
          "横兵",
          {
            "i": "ōhei"
          },
          "Water buffalo",
          "水牛",
          {
            "i": "suigyū"
          }
        ]
      },
      {
        "td": [
          "Vertical soldier",
          "竪兵",
          {
            "i": "shuhei"
          },
          "Chariot soldier",
          "車兵",
          {
            "i": "shahei"
          }
        ]
      },
      {
        "td": [
          "Wind general",
          "風将",
          {
            "i": "fūshō"
          },
          "*Violent wind",
          "暴風",
          {
            "i": "bōfū"
          }
        ]
      },
      {
        "td": [
          "River general",
          "川将",
          {
            "i": "senshō"
          },
          "*Chinese river",
          "淮川",
          {
            "i": "waisen"
          }
        ]
      },
      {
        "td": [
          "Mountain general",
          "山将",
          {
            "i": "sanshō"
          },
          "*Peaceful mountain",
          "泰山",
          {
            "i": "taizan"
          }
        ]
      },
      {
        "td": [
          "Front standard",
          "前旗",
          {
            "i": "zenki"
          },
          "Great standard",
          "大旗",
          {
            "i": "daiki"
          }
        ]
      },
      {
        "td": [
          "Horse soldier",
          "馬兵",
          {
            "i": "bahei"
          },
          "Running horse",
          "走馬",
          {
            "i": "sōma, sōba"
          }
        ]
      },
      {
        "td": [
          "Wood general",
          "木将",
          {
            "i": "mokushō"
          },
          {
            "a": {
              "@href": "/wiki/White_elephant",
              "@title": "White elephant",
              "#text": "White elephant"
            }
          },
          "白象",
          {
            "i": "hakuzō"
          }
        ]
      },
      {
        "td": [
          "Ox soldier",
          "牛兵",
          {
            "i": "gyūhei"
          },
          "*Running ox",
          "走牛",
          {
            "i": "sōgyū"
          }
        ]
      },
      {
        "td": [
          "Earth general",
          "土将",
          {
            "i": "doshō"
          },
          {
            "a": {
              "@href": "/wiki/White_elephant",
              "@title": "White elephant",
              "#text": "White elephant"
            }
          },
          "白象",
          {
            "i": "hakuzō"
          }
        ]
      },
      {
        "td": [
          "Boar soldier",
          "猪兵",
          {
            "i": "chohei"
          },
          "*Running boar",
          "走猪",
          {
            "i": "sōcho"
          }
        ]
      },
      {
        "td": [
          "Stone general",
          "石将",
          {
            "i": "sekishō"
          },
          {
            "a": {
              "@href": "/wiki/White_elephant",
              "@title": "White elephant",
              "#text": "White elephant"
            }
          },
          "白象",
          {
            "i": "hakuzō"
          }
        ]
      },
      {
        "td": [
          "Leopard soldier",
          "豹兵",
          {
            "i": "hyōhei"
          },
          "*Running leopard",
          "走豹",
          {
            "i": "sōhyō"
          }
        ]
      },
      {
        "td": [
          "Tile general",
          "瓦将",
          {
            "i": "gashō"
          },
          {
            "a": {
              "@href": "/wiki/White_elephant",
              "@title": "White elephant",
              "#text": "White elephant"
            }
          },
          "白象",
          {
            "i": "hakuzō"
          }
        ]
      },
      {
        "td": [
          "Bear soldier",
          "熊兵",
          {
            "i": "yūhei"
          },
          "*Strong bear",
          "強熊",
          {
            "i": "kyōyū"
          }
        ]
      },
      {
        "td": [
          "Iron general",
          "鉄将",
          {
            "i": "tesshō"
          },
          {
            "a": {
              "@href": "/wiki/White_elephant",
              "@title": "White elephant",
              "#text": "White elephant"
            }
          },
          "白象",
          {
            "i": "hakuzō"
          }
        ]
      },
      {
        "td": [
          "Great standard",
          "大旗",
          {
            "i": "daiki"
          },
          "—",
          "",
          ""
        ]
      },
      {
        "td": [
          "Great master",
          "大師",
          {
            "i": "daishi"
          },
          "—",
          "",
          ""
        ]
      },
      {
        "td": [
          "Right chariot",
          "右車",
          {
            "i": "usha"
          },
          "*Right iron chariot",
          "右鉄車",
          {
            "i": "utessha"
          }
        ]
      },
      {
        "td": [
          "Left chariot",
          "左車",
          {
            "i": "sasha"
          },
          "*Left iron chariot",
          "左鉄車",
          {
            "i": "satessha"
          }
        ]
      },
      {
        "td": [
          "Side monkey",
          "横猿",
          {
            "i": "ōen"
          },
          "Side soldier",
          "横兵",
          {
            "i": "ōhei"
          }
        ]
      },
      {
        "td": [
          "Vertical mover",
          "竪行",
          {
            "i": "shugyō"
          },
          "Flying ox",
          "飛牛",
          {
            "i": "higyū"
          }
        ]
      },
      {
        "td": [
          "Flying ox",
          "飛牛",
          {
            "i": "higyū"
          },
          "*Fire ox",
          "火牛",
          {
            "i": "kagyū"
          }
        ]
      },
      {
        "td": [
          "Longbow soldier",
          "弩兵",
          {
            "i": "dohei"
          },
          "*Longbow general",
          "弩将",
          {
            "i": "doshō"
          }
        ]
      },
      {
        "td": [
          "Vertical pup",
          "竪狗",
          {
            "i": "shuku"
          },
          "*Leopard king",
          "豹王",
          {
            "i": "hyōō"
          }
        ]
      },
      {
        "td": [
          "Vertical horse",
          "竪馬",
          {
            "i": "shuba"
          },
          "Dragon horse",
          "龍馬",
          {
            "i": "ryūme"
          }
        ]
      },
      {
        "td": [
          "Burning soldier",
          "炮兵",
          {
            "i": "hōhei"
          },
          "*Burning general",
          "炮将",
          {
            "i": "hōshō"
          }
        ]
      },
      {
        "td": [
          "Dragon horse",
          "龍馬",
          {
            "i": "ryūme"
          },
          "Horned falcon",
          "角鷹",
          {
            "i": "kakuō"
          }
        ]
      },
      {
        "td": [
          "Dragon king",
          "龍王",
          {
            "i": "ryūō"
          },
          "Soaring eagle",
          "飛鷲",
          {
            "i": "hijū"
          }
        ]
      },
      {
        "td": [
          "Sword soldier",
          "刀兵",
          {
            "i": "tōhei"
          },
          "*Sword general",
          "刀将",
          {
            "i": "tōshō"
          }
        ]
      },
      {
        "td": [
          "Horned falcon",
          "角鷹",
          {
            "i": "kakuō"
          },
          "*Great falcon",
          "大鷹",
          {
            "i": "daiō"
          }
        ]
      },
      {
        "td": [
          "Soaring eagle",
          "飛鷲",
          {
            "i": "hijū"
          },
          "*Great eagle",
          "大鷲",
          {
            "i": "daijū"
          }
        ]
      },
      {
        "td": [
          "Spear soldier",
          "鎗兵",
          {
            "i": "sōhei"
          },
          "*Spear general",
          "鎗将",
          {
            "i": "sōshō"
          }
        ]
      },
      {
        "td": [
          "Vertical leopard",
          "竪豹",
          {
            "i": "shuhyō"
          },
          "*Great leopard",
          "大豹",
          {
            "i": "daihyō"
          }
        ]
      },
      {
        "td": [
          "Savage tiger",
          "猛虎",
          {
            "i": "mōko"
          },
          "*Great tiger",
          "大虎",
          {
            "i": "daiko"
          }
        ]
      },
      {
        "td": [
          "Crossbow soldier",
          "弓兵",
          {
            "i": "kyūhei"
          },
          "*Crossbow general",
          "弓将",
          {
            "i": "kyūshō"
          }
        ]
      },
      {
        "td": [
          "Roaring dog",
          "吼犬",
          {
            "i": "kōken"
          },
          {
            "a": {
              "@href": "/wiki/Komainu",
              "@title": "Komainu",
              "#text": "Lion dog"
            }
          },
          "狛犬",
          {
            "i": "komainu"
          }
        ]
      },
      {
        "td": [
          {
            "a": {
              "@href": "/wiki/Komainu",
              "@title": "Komainu",
              "#text": "Lion dog"
            }
          },
          "狛犬",
          {
            "i": "komainu"
          },
          "*Great elephant",
          "大象",
          {
            "i": "taizō"
          }
        ]
      },
      {
        "td": [
          "Dog",
          "犬",
          {
            "i": "inu"
          },
          "*Multi-general",
          "雜将",
          {
            "i": "suishō"
          }
        ]
      },
      {
        "td": [
          "Go between",
          "仲人",
          {
            "i": "chūnin"
          },
          "Drunken elephant",
          "酔象",
          {
            "i": "suizō"
          }
        ]
      },
      {
        "td": [
          "Pawn",
          "歩兵",
          {
            "i": "fuhyō"
          },
          "Gold general",
          "金将",
          {
            "i": "kinshō"
          }
        ]
      }
    ]
  }
}
